…
### Exercise 14

Here’s a model fit with all of the given variables:

``` r
m_full <- linear_reg() %>%
  set_engine("lm") %>%
  fit(score ~ rank*ethnicity*gender*language*age*cls_perc_eval*cls_students*cls_level*cls_profs*cls_credits*bty_avg, data = evals)

tidy(m_full)
```

    ## # A tibble: 3,072 × 5
    ##    term                  estimate std.error statistic p.value
    ##    <chr>                    <dbl>     <dbl>     <dbl>   <dbl>
    ##  1 (Intercept)            7.67e13   5.19e13    1.48    0.141 
    ##  2 ranktenure track      -4.87e13   1.08e14   -0.450   0.653 
    ##  3 ranktenured            2.01e13   9.10e12    2.21    0.0284
    ##  4 ethnicitynot minority -7.67e13   5.19e13   -1.48    0.141 
    ##  5 gendermale             2.42e13   1.48e13    1.63    0.105 
    ##  6 languagenon-english   -7.67e13   4.81e13   -1.60    0.112 
    ##  7 age                   -2.27e12   1.16e12   -1.95    0.0532
    ##  8 cls_perc_eval         -1.89e12   1.34e12   -1.41    0.160 
    ##  9 cls_students          -2.00e10   3.62e11   -0.0553  0.956 
    ## 10 cls_levelupper        -2.32e13   1.09e13   -2.13    0.0347
    ## # ℹ 3,062 more rows
…
### Exercise 15

Now let’s try to pick out the most important variables to leave in the
model via backward selection. The final model is given below:

``` r
m_full <- linear_reg() %>%
  set_engine("lm") %>%
  fit(score ~ rank*gender*age*cls_perc_eval*cls_level*cls_profs*bty_avg, data = evals)

tidy(m_full)
```

    ## # A tibble: 192 × 5
    ##    term                        estimate std.error statistic p.value
    ##    <chr>                          <dbl>     <dbl>     <dbl>   <dbl>
    ##  1 (Intercept)                   169.      781.     0.216     0.829
    ##  2 ranktenure track              226.     2229.     0.101     0.919
    ##  3 ranktenured                  -543.      772.    -0.703     0.483
    ##  4 gendermale                   -413.      810.    -0.510     0.610
    ##  5 age                            -5.19     21.7   -0.239     0.811
    ##  6 cls_perc_eval                   2.06      6.61   0.311     0.756
    ##  7 cls_levelupper               -166.      781.    -0.213     0.832
    ##  8 cls_profssingle              -411.      548.    -0.751     0.453
    ##  9 bty_avg                        22.0      65.5    0.336     0.737
    ## 10 ranktenure track:gendermale    15.0    2226.     0.00674   0.995
    ## # ℹ 182 more rows
…
